{"jobs":[{"id":13,"employer_id":11,"title":"Sales Girl","description":"20-28 age","location":"Palayam","job_type":"Full-time","vacancies_count":10,"expiry_date":"2026-05-28T18:30:00.000Z","contact_person":"Abhilash Nair","contact_phone":"+9165874562","status":"active","is_urgent":1,"created_at":"2026-04-24T05:35:12.000Z","company_name":"Kalyan Silks","address":"GX42+3P2, near Fine Arts College, University of Kerala Senate House Campus, Palayam, Thiruvananthapuram, Kerala 695033","google_map_link":"https://maps.app.goo.gl/VRMoJdGuG6WtLH2KA","is_verified":1},{"id":12,"employer_id":3,"title":"Security Guard","description":"Age 50-60. Persons from nearby location. Day and Night Shift","location":"Pattom","job_type":"Part-time","vacancies_count":4,"expiry_date":"2026-04-29T18:30:00.000Z","contact_person":"--","contact_phone":null,"status":"active","is_urgent":1,"created_at":"2026-04-23T05:49:06.000Z","company_name":"Big Mart","address":"Main Road, Pattom","google_map_link":"https://maps.app.goo.gl/bigmart","is_verified":1},{"id":11,"employer_id":6,"title":"Fuel Filling Staff","description":"Age 30-40","location":"Pattom","job_type":"Full-time","vacancies_count":5,"expiry_date":"2026-04-28T18:30:00.000Z","contact_person":"Sethu","contact_phone":null,"status":"active","is_urgent":0,"created_at":"2026-04-21T12:54:43.000Z","company_name":"Bharath Petroleum ","address":"Test Address, Test Address line  2","google_map_link":null,"is_verified":1},{"id":1,"employer_id":2,"title":"Sales Associate","description":"Urgent hiring for sales associate at Pattom branch. Good communication skills required.","location":"Pattom","job_type":"Full-time","vacancies_count":1,"expiry_date":null,"contact_person":null,"contact_phone":null,"status":"active","is_urgent":1,"created_at":"2026-04-21T12:00:09.000Z","company_name":"V-Mart Retail","address":"Pattom Junction, Trivandrum","google_map_link":"https://maps.app.goo.gl/6DszH","is_verified":1},{"id":2,"employer_id":2,"title":"Delivery Partner","description":"Need delivery partners for Kazhakoottam area. Must have two-wheeler.","location":"Kazhakoottam","job_type":"Daily Wages","vacancies_count":1,"expiry_date":"2026-04-29T18:30:00.000Z","contact_person":"--","contact_phone":null,"status":"active","is_urgent":0,"created_at":"2026-04-21T12:00:09.000Z","company_name":"V-Mart Retail","address":"Pattom Junction, Trivandrum","google_map_link":"https://maps.app.goo.gl/6DszH","is_verified":1},{"id":4,"employer_id":3,"title":"Billing Clerk","description":"Handle billing and customer queries at help desk.","location":"Pattom","job_type":"Full-time","vacancies_count":1,"expiry_date":null,"contact_person":null,"contact_phone":null,"status":"active","is_urgent":0,"created_at":"2026-04-21T12:00:09.000Z","company_name":"Big Mart","address":"Main Road, Pattom","google_map_link":"https://maps.app.goo.gl/bigmart","is_verified":1},{"id":5,"employer_id":3,"title":"Inventory Manager","description":"Manage stock and warehouse entries.","location":"Kazhakoottam","job_type":"Full-time","vacancies_count":1,"expiry_date":null,"contact_person":null,"contact_phone":null,"status":"active","is_urgent":0,"created_at":"2026-04-21T12:00:09.000Z","company_name":"Big Mart","address":"Main Road, Pattom","google_map_link":"https://maps.app.goo.gl/bigmart","is_verified":1},{"id":6,"employer_id":3,"title":"Cleaning Staff","description":"Night shift cleaning and maintenance.","location":"Pattom","job_type":"Part-time","vacancies_count":1,"expiry_date":null,"contact_person":null,"contact_phone":null,"status":"active","is_urgent":0,"created_at":"2026-04-21T12:00:09.000Z","company_name":"Big Mart","address":"Main Road, Pattom","google_map_link":"https://maps.app.goo.gl/bigmart","is_verified":1},{"id":7,"employer_id":4,"title":"Data Entry Operator","description":"Simple data entry work. Freshers welcome.","location":"Vazhuthacaud","job_type":"Full-time","vacancies_count":1,"expiry_date":null,"contact_person":null,"contact_phone":null,"status":"active","is_urgent":0,"created_at":"2026-04-21T12:00:09.000Z","company_name":"Tech Solutions","address":"Technopark, Kazhakoottam","google_map_link":"https://maps.app.goo.gl/techsol","is_verified":1},{"id":8,"employer_id":4,"title":"Support Executive","description":"Assist clients over phone and email.","location":"Kazhakoottam","job_type":"Contract","vacancies_count":1,"expiry_date":null,"contact_person":null,"contact_phone":null,"status":"active","is_urgent":0,"created_at":"2026-04-21T12:00:09.000Z","company_name":"Tech Solutions","address":"Technopark, Kazhakoottam","google_map_link":"https://maps.app.goo.gl/techsol","is_verified":1}],"total":12,"totalPages":2,"currentPage":1}